[preview.keenthemes.com/metronic8/demo1/dashboards/ecommerce.html]
[backblue.gif]
[fade.gif]
[index.html]
[preview.keenthemes.com/metronic8/demo1/assets/plugins/custom/datatables/datatables.bundle.css]
[preview.keenthemes.com/metronic8/demo1/assets/plugins/custom/vis-timeline/vis-timeline.bundle.css]
[preview.keenthemes.com/metronic8/demo1/assets/plugins/global/plugins.bundle.css]
[preview.keenthemes.com/metronic8/demo1/assets/css/style.bundle.css]
[preview.keenthemes.com/metronic8/demo1/dashboards/store-analytics.html]
[preview.keenthemes.com/metronic8/demo1/dashboards/logistics.html]
[preview.keenthemes.com/metronic8/demo1/dashboards/delivery.html]
[preview.keenthemes.com/metronic8/demo1/dashboards/marketing.html]
[preview.keenthemes.com/metronic8/demo1/dashboards/social.html]
[preview.keenthemes.com/metronic8/demo1/assets/media/avatars/300-6.jpg]
[preview.keenthemes.com/metronic8/demo1/assets/media/avatars/300-2.jpg]
[preview.keenthemes.com/metronic8/demo1/assets/media/avatars/300-9.jpg]
[preview.keenthemes.com/metronic8/demo1/assets/media/avatars/300-14.jpg]
[preview.keenthemes.com/metronic8/demo1/assets/media/avatars/300-11.jpg]
[preview.keenthemes.com/metronic8/demo1/assets/media/misc/pattern-1.jpg]
[preview.keenthemes.com/metronic8/demo1/assets/media/illustrations/sketchy-1/1.png]
[preview.keenthemes.com/metronic8/demo1/assets/media/avatars/300-1.jpg]
[preview.keenthemes.com/metronic8/demo1/assets/media/avatars/300-12.jpg]
[preview.keenthemes.com/metronic8/demo1/assets/media/stock/ecommerce/210.gif]
[preview.keenthemes.com/metronic8/demo1/assets/media/stock/ecommerce/215.gif]
[preview.keenthemes.com/metronic8/demo1/assets/media/stock/ecommerce/209.gif]
[preview.keenthemes.com/metronic8/demo1/assets/media/stock/ecommerce/197.gif]
[preview.keenthemes.com/metronic8/demo1/assets/media/stock/ecommerce/178.gif]
[preview.keenthemes.com/metronic8/demo1/assets/media/stock/ecommerce/22.gif]
[preview.keenthemes.com/metronic8/demo1/assets/media/stock/ecommerce/1.gif]
[preview.keenthemes.com/metronic8/demo1/assets/media/stock/ecommerce/24.gif]
[preview.keenthemes.com/metronic8/demo1/assets/media/stock/ecommerce/71.gif]
[preview.keenthemes.com/metronic8/demo1/assets/media/stock/ecommerce/41.gif]
[preview.keenthemes.com/metronic8/demo1/assets/media/stock/ecommerce/63.gif]
[preview.keenthemes.com/metronic8/demo1/assets/media/stock/ecommerce/59.gif]
[preview.keenthemes.com/metronic8/demo1/assets/media/stock/ecommerce/10.gif]
[preview.keenthemes.com/metronic8/demo1/assets/media/stock/ecommerce/96.gif]
[preview.keenthemes.com/metronic8/demo1/assets/media/stock/ecommerce/13.gif]
[preview.keenthemes.com/metronic8/demo1/assets/media/stock/ecommerce/214.gif]
[preview.keenthemes.com/metronic8/demo1/assets/media/stock/ecommerce/211.gif]
[preview.keenthemes.com/metronic8/demo1/assets/media/stock/ecommerce/192.gif]
[preview.keenthemes.com/metronic8/demo1/assets/media/avatars/300-20.jpg]
[preview.keenthemes.com/metronic8/demo1/assets/media/avatars/300-23.jpg]
[preview.keenthemes.com/metronic8/demo1/assets/media/stock/600x400/img-29.jpg]
[preview.keenthemes.com/metronic8/demo1/assets/media/stock/600x400/img-31.jpg]
[preview.keenthemes.com/metronic8/demo1/assets/media/stock/600x400/img-40.jpg]
[preview.keenthemes.com/metronic8/demo1/assets/media/avatars/300-4.jpg]
[preview.keenthemes.com/metronic8/demo1/assets/media/avatars/300-25.jpg]
[preview.keenthemes.com/metronic8/demo1/assets/media/demos/demo1.png]
[preview.keenthemes.com/metronic8/demo1/assets/media/demos/demo2.png]
[preview.keenthemes.com/metronic8/demo1/assets/media/demos/demo3.png]
[preview.keenthemes.com/metronic8/demo1/assets/media/demos/demo4.png]
[preview.keenthemes.com/metronic8/demo1/assets/media/demos/demo5.png]
[preview.keenthemes.com/metronic8/demo1/assets/media/demos/demo6.png]
[preview.keenthemes.com/metronic8/demo1/assets/media/demos/demo7.png]
[preview.keenthemes.com/metronic8/demo1/assets/media/demos/demo8.png]
[preview.keenthemes.com/metronic8/demo1/assets/media/demos/demo9.png]
[preview.keenthemes.com/metronic8/demo1/assets/media/demos/demo10.png]
[preview.keenthemes.com/metronic8/demo1/assets/media/demos/demo11.png]
[preview.keenthemes.com/metronic8/demo1/assets/media/demos/demo12.png]
[preview.keenthemes.com/metronic8/demo1/assets/media/demos/demo13.png]
[preview.keenthemes.com/metronic8/demo1/assets/media/demos/demo14.png]
[preview.keenthemes.com/metronic8/demo1/assets/media/demos/demo15.png]
[preview.keenthemes.com/metronic8/demo1/assets/media/demos/demo16.png]
[preview.keenthemes.com/metronic8/demo1/assets/media/demos/demo17.png]
[preview.keenthemes.com/metronic8/demo1/assets/media/demos/demo18.png]
[preview.keenthemes.com/metronic8/demo1/assets/media/demos/demo19.png]
[preview.keenthemes.com/metronic8/demo1/assets/media/demos/demo20.png]
[preview.keenthemes.com/metronic8/demo1/assets/media/demos/demo21.png]
[preview.keenthemes.com/metronic8/demo1/assets/media/demos/demo22.png]
[preview.keenthemes.com/metronic8/demo1/assets/media/demos/demo23.png]
[preview.keenthemes.com/metronic8/demo1/assets/media/demos/demo24.png]
[preview.keenthemes.com/metronic8/demo1/assets/media/avatars/300-5.jpg]
[preview.keenthemes.com/metronic8/demo1/assets/media/avatars/300-13.jpg]
[preview.keenthemes.com/metronic8/demo1/assets/media/avatars/300-21.jpg]
[preview.keenthemes.com/metronic8/demo1/assets/js/scripts.bundle.js]
[preview.keenthemes.com/metronic8/demo1/assets/plugins/global/plugins.bundle.js]
[preview.keenthemes.com/metronic8/demo1/assets/js/widgets.bundle.js]
[preview.keenthemes.com/metronic8/demo1/assets/plugins/custom/vis-timeline/vis-timeline.bundle.js]
[preview.keenthemes.com/metronic8/demo1/assets/plugins/custom/datatables/datatables.bundle.js]
[preview.keenthemes.com/metronic8/demo1/assets/js/custom/widgets.js]
[preview.keenthemes.com/metronic8/demo1/assets/js/custom/apps/chat/chat.js]
[preview.keenthemes.com/metronic8/demo1/assets/js/custom/intro.js]
[preview.keenthemes.com/metronic8/demo1/assets/js/custom/utilities/modals/upgrade-plan.js]
[preview.keenthemes.com/metronic8/demo1/dashboards/ecommerce.html]
[preview.keenthemes.com/metronic8/demo1/assets/js/custom/utilities/modals/users-search.js]
[www.datatables.net/examples/resources/details_open.png]
[preview.keenthemes.com/metronic8/demo1/assets/plugins/custom/datatables/datatables.bundle.css]
[preview.keenthemes.com/metronic8/demo1/assets/plugins/custom/vis-timeline/vis-timeline.bundle.css]
[preview.keenthemes.com/metronic8/demo1/assets/plugins/global/fonts/@fortawesome/fa-brands-400.eot]
[preview.keenthemes.com/metronic8/demo1/assets/plugins/global/fonts/@fortawesome/fa-brands-400d41d.eot]
[preview.keenthemes.com/metronic8/demo1/assets/plugins/global/fonts/@fortawesome/fa-brands-400.woff2]
[preview.keenthemes.com/metronic8/demo1/assets/plugins/global/fonts/@fortawesome/fa-brands-400.woff]
[preview.keenthemes.com/metronic8/demo1/assets/plugins/global/fonts/@fortawesome/fa-brands-400.ttf]
[preview.keenthemes.com/metronic8/demo1/assets/plugins/global/fonts/@fortawesome/fa-regular-400.eot]
[preview.keenthemes.com/metronic8/demo1/assets/plugins/global/fonts/@fortawesome/fa-regular-400d41d.eot]
[preview.keenthemes.com/metronic8/demo1/assets/plugins/global/fonts/@fortawesome/fa-regular-400.woff2]
[preview.keenthemes.com/metronic8/demo1/assets/plugins/global/fonts/@fortawesome/fa-regular-400.woff]
[preview.keenthemes.com/metronic8/demo1/assets/plugins/global/fonts/@fortawesome/fa-regular-400.ttf]
[preview.keenthemes.com/metronic8/demo1/assets/plugins/global/fonts/@fortawesome/fa-solid-900.eot]
[preview.keenthemes.com/metronic8/demo1/assets/plugins/global/fonts/@fortawesome/fa-solid-900d41d.eot]
[preview.keenthemes.com/metronic8/demo1/assets/plugins/global/fonts/@fortawesome/fa-solid-900.woff2]
[preview.keenthemes.com/metronic8/demo1/assets/plugins/global/fonts/@fortawesome/fa-solid-900.woff]
[preview.keenthemes.com/metronic8/demo1/assets/plugins/global/fonts/@fortawesome/fa-solid-900.ttf]
[preview.keenthemes.com/metronic8/demo1/assets/plugins/global/fonts/fonticons/fonticonsfac3.ttf]
[preview.keenthemes.com/metronic8/demo1/assets/plugins/global/fonts/fonticons/fonticonsfac3.woff]
[preview.keenthemes.com/metronic8/demo1/assets/plugins/global/fonts/fonticons/fonticonsfac3.woff2]
[preview.keenthemes.com/metronic8/demo1/assets/plugins/global/fonts/fonticons/fonticonsfac3.eot]
[preview.keenthemes.com/metronic8/demo1/assets/plugins/global/plugins.bundle.css]
[preview.keenthemes.com/metronic8/demo1/assets/css/style.bundle.css]
[www.googletagmanager.com/gtm5445.html]
[cdn.amcharts.com/lib/5/index.js]
[cdn.amcharts.com/lib/5/map.js]
[cdn.amcharts.com/lib/5/geodata/worldLow.js]
[cdn.amcharts.com/lib/5/geodata/continentsLow.js]
[cdn.amcharts.com/lib/5/geodata/usaLow.js]
[cdn.amcharts.com/lib/5/geodata/worldTimeZonesLow.js]
[cdn.amcharts.com/lib/5/geodata/worldTimeZoneAreasLow.js]
[cdn.amcharts.com/lib/5/themes/Animated.js]
[cdn.amcharts.com/lib/5/xy.js]
[cdn.amcharts.com/lib/5/percent.js]
[preview.keenthemes.com/metronic8/demo1/dashboards/store-analytics.html]
[preview.keenthemes.com/metronic8/demo1/dashboards/logistics.html]
[cdn.amcharts.com/lib/5/radar.js]
[preview.keenthemes.com/metronic8/demo1/assets/media/stock/ecommerce/14.gif]
[preview.keenthemes.com/metronic8/demo1/assets/media/stock/ecommerce/53.gif]
[preview.keenthemes.com/metronic8/demo1/assets/media/stock/ecommerce/194.gif]
[preview.keenthemes.com/metronic8/demo1/dashboards/delivery.html]
[preview.keenthemes.com/metronic8/demo1/assets/media/illustrations/sketchy-1/9.png]
[preview.keenthemes.com/metronic8/demo1/assets/js/custom/utilities/modals/create-campaign.js]
[preview.keenthemes.com/metronic8/demo1/dashboards/marketing.html]
[preview.keenthemes.com/metronic8/demo1/dashboards/social.html]
[preview.keenthemes.com/metronic8/demo1/assets/plugins/global/fonts/@fortawesome/fa-brands-400.svg]
[preview.keenthemes.com/metronic8/demo1/assets/plugins/global/fonts/@fortawesome/fa-regular-400.svg]
[preview.keenthemes.com/metronic8/demo1/assets/js/custom/utilities/modals/create-app.js]
[preview.keenthemes.com/metronic8/demo1/assets/plugins/global/fonts/@fortawesome/fa-solid-900.svg]
[preview.keenthemes.com/metronic8/demo1/assets/plugins/global/fonts/fonticons/fonticonsfac3.svg]
